<?xml version="1.0" encoding="utf-8"?>
<svg version="1.1" id="Layer_1"
xmlns="http://www.w3.org/2000/svg"
xmlns:xlink="http://www.w3.org/1999/xlink"
width="141px" height="85px"
viewBox="0 0 141 85"
xml:space="preserve">
<g id="80" transform="matrix(1, 0, 0, 1, 55.85, 42.2)">
<path style="fill:#AAACAF;fill-opacity:1" d="M78.45,-23.9L78.45 0.85L78.4 1.95L81.55 4.35L81.75 4.55L82.1 4.9L82.25 5.15L82.7 6.05L82.8 6.35L82.95 7.4L82.95 16.75Q82.95 17.65 82.6 18.4L83.8 19.7Q84.95 20.85 84.95 22.55L84.65 24.1L84.55 24.3L84.55 25.6Q84.55 27.15 83.45 28.25Q82.4 29.3 80.85 29.3L53.55 29.3L53.55 32.9Q53.55 36.9 50.75 39.8Q47.85 42.6 43.8 42.6L-46.1 42.6Q-50.15 42.6 -53 39.8Q-55.85 36.9 -55.85 32.85L-55.85 -32.45Q-55.85 -36.45 -53 -39.35Q-50.15 -42.2 -46.1 -42.2L43.8 -42.2Q47.85 -42.2 50.75 -39.35Q53.55 -36.45 53.55 -32.45L53.55 -32.15L65.25 -31.8L71.35 -31.45L71.5 -31.45Q74.45 -31.2 76.45 -29Q78.45 -26.9 78.45 -23.9" />
<linearGradient
id="LinearGradID_52" gradientUnits="userSpaceOnUse" gradientTransform="matrix(-0.0587769, 0, 0, 0.0587769, 37.6, 5.15)" spreadMethod ="pad" x1="-819.2" y1="0" x2="819.2" y2="0" >
<stop  offset="0" style="stop-color:#FFFFFF;stop-opacity:1" />
<stop  offset="1" style="stop-color:#383535;stop-opacity:1" />
</linearGradient>
<path style="fill:url(#LinearGradID_52) " d="M78.9,7.45L26.65 7.45L32.65 2.9L72.8 2.9L78.9 7.45" />
<path style="fill:#AAACAF;fill-opacity:1" d="M72.45,3.85L33 3.85L29.5 6.5L76 6.5L72.45 3.85M78.9,8.4L26.65 8.4Q26 8.4 25.8 7.75Q25.55 7.1 26.1 6.7L32.1 2.15L32.65 1.95L72.8 1.95L73.3 2.15L79.45 6.7Q79.95 7.1 79.75 7.75Q79.55 8.4 78.9 8.4" />
<linearGradient
id="LinearGradID_53" gradientUnits="userSpaceOnUse" gradientTransform="matrix(0, 0.0370636, 0.0370636, 0, 52.8, -3.85)" spreadMethod ="pad" x1="-819.2" y1="0" x2="819.2" y2="0" >
<stop  offset="0" style="stop-color:#FFFFFF;stop-opacity:1" />
<stop  offset="1" style="stop-color:#383535;stop-opacity:1" />
</linearGradient>
<path style="fill:url(#LinearGradID_53) " d="M74.4,-23.9L74.4 0.8Q74.4 2.1 73.45 3.15Q72.5 4.15 71.15 4.2Q61.9 4.7 52.85 4.7L40.2 4.45L34.45 4.2Q33.1 4.15 32.15 3.15Q31.2 2.1 31.2 0.8L31.2 -23.9Q31.2 -25.25 32.15 -26.25Q33.1 -27.25 34.4 -27.35L40.1 -27.7L52.7 -28.05L71.15 -27.35Q72.5 -27.25 73.45 -26.25Q74.4 -25.25 74.4 -23.9" />
<path style="fill:#AAACAF;fill-opacity:1" d="M72.75,-25.6Q72 -26.35 71.1 -26.4L52.7 -27.1L40.15 -26.75L34.5 -26.4Q33.55 -26.35 32.85 -25.6Q32.15 -24.85 32.15 -23.9L32.15 0.8Q32.15 1.75 32.85 2.45Q33.55 3.2 34.45 3.25L40.25 3.5L52.85 3.75Q61.85 3.75 71.1 3.25Q72.05 3.2 72.75 2.45Q73.45 1.75 73.45 0.8L73.45 -23.9Q73.45 -24.85 72.75 -25.6M75.3,-23.9L75.3 0.8Q75.3 2.55 74.15 3.8Q72.95 5 71.25 5.15Q61.9 5.65 52.85 5.65L40.2 5.4L34.35 5.15Q32.65 5 31.45 3.8Q30.3 2.55 30.3 0.8L30.3 -23.9Q30.3 -25.6 31.45 -26.9Q32.65 -28.15 34.35 -28.3L40.05 -28.65L52.7 -29L71.25 -28.3Q72.95 -28.15 74.15 -26.9Q75.3 -25.6 75.3 -23.9" />
<radialGradient
id="RadialGradID_54" gradientUnits="userSpaceOnUse" gradientTransform="matrix(0.126877, 0, 0, -0.142853, 30.2, 8.55)" spreadMethod ="pad" cx="0" cy="0" r="819.2" fx="0" fy="0" >
<stop  offset="0"  style="stop-color:#FFFFFF;stop-opacity:1" />
<stop  offset="1"  style="stop-color:#383535;stop-opacity:1" />
</radialGradient>
<path style="fill:url(#RadialGradID_54) " d="M78.9,16.75L26.65 16.75L26.65 7.45L78.9 7.45L78.9 16.75" />
<path style="fill:#AAACAF;fill-opacity:1" d="M77.95,8.4L27.6 8.4L27.6 15.8L77.95 15.8L77.95 8.4M78.9,17.7L26.65 17.7Q26.3 17.7 26 17.4Q25.7 17.05 25.7 16.75L25.7 7.45Q25.7 7.05 26 6.8Q26.35 6.5 26.65 6.5L78.9 6.5Q79.2 6.5 79.55 6.8L79.8 7.45L79.8 16.75L79.55 17.4L78.9 17.7" />
<radialGradient
id="RadialGradID_55" gradientUnits="userSpaceOnUse" gradientTransform="matrix(0.0774078, 0, 0, -0.104477, 58.65, 20.7)" spreadMethod ="pad" cx="0" cy="0" r="819.2" fx="0" fy="0" >
<stop  offset="0"  style="stop-color:#FFFFFF;stop-opacity:1" />
<stop  offset="1"  style="stop-color:#383535;stop-opacity:1" />
</radialGradient>
<path style="fill:url(#RadialGradID_55) " d="M80.85,22.55L25.05 22.55L31.45 15.75L74.35 15.75L80.85 22.55" />
<path style="fill:#AAACAF;fill-opacity:1" d="M75,15.1L81.55 21.9Q82 22.3 81.75 22.9Q81.45 23.5 80.85 23.5L25.05 23.5Q24.45 23.5 24.15 22.9Q23.95 22.3 24.35 21.9L30.8 15.1Q31.05 14.85 31.45 14.85L74.35 14.85Q74.75 14.85 75 15.1M73.95,16.7L31.85 16.7L27.25 21.6L78.65 21.6L73.95 16.7" />
<radialGradient
id="RadialGradID_56" gradientUnits="userSpaceOnUse" gradientTransform="matrix(0.058075, 0, 0, -0.0783691, 59.65, 30.2)" spreadMethod ="pad" cx="0" cy="0" r="819.2" fx="0" fy="0" >
<stop  offset="0"  style="stop-color:#FFFFFF;stop-opacity:1" />
<stop  offset="1"  style="stop-color:#383535;stop-opacity:1" />
</radialGradient>
<path style="fill:url(#RadialGradID_56) " d="M80.85,25.6L25.05 25.6L25.05 22.55L80.85 22.55L80.85 25.6" />
<path style="fill:#AAACAF;fill-opacity:1" d="M79.9,23.5L25.95 23.5L25.95 24.7L79.9 24.7L79.9 23.5M80.9,26.55L25.05 26.55L24.35 26.3Q24.1 26 24.1 25.6L24.1 22.55Q24.1 22.15 24.35 21.85L25.05 21.6L80.9 21.6Q81.25 21.6 81.55 21.85L81.8 22.55L81.8 25.6L81.55 26.3L80.9 26.55" />
<path style="fill:#737477;fill-opacity:1" d="M61.85,10.8L74.2 10.8L74.2 12.05L61.85 12.05L61.85 10.8" />
<path style="fill:#858789;fill-opacity:1" d="M47.15,19.7L47.1 20.1L48.5 20.1L48.55 19.7L47.15 19.7M48.8,17.8L48.8 17.6L47.5 17.6L47.55 17.8L48.8 17.8M52.25,17.8L52.25 17.6L50.8 17.6L50.85 17.8L52.25 17.8M50.65,19.7L50.65 20.1L52.25 20.1L52.25 19.7L50.65 19.7M53.6,16.35L72.7 16.35Q73.35 16.05 73.85 16.7L74.75 17.95L75.15 18.55L76.35 20.25Q76.7 20.55 76.7 21.05L76.45 21.7L75.75 21.95L30.8 21.95L30.15 21.7Q29.85 21.4 29.85 21.05L29.85 20.95L30.05 20.3L31.05 18.9L31.05 18.75Q31.05 18 31.8 17.8L32.55 16.7Q33.05 16.05 33.75 16.35L52.85 16.35L53.2 16.3L53.6 16.35M54.15,17.8L55.6 17.8L55.6 17.6L54.15 17.6L54.15 17.8M57.65,17.8L58.9 17.8L58.9 17.6L57.65 17.6L57.65 17.8M57.9,20.1L59.35 20.1L59.3 19.7L57.85 19.7L57.9 20.1M54.15,19.7L54.15 20.1L55.8 20.1L55.75 19.7L54.15 19.7M64.55,17.8L65.55 17.8L65.5 17.6L64.45 17.6L64.5 17.65L64.55 17.8M62.2,17.6L61.05 17.6L61.1 17.8L62.2 17.8L62.2 17.6M61.55,19.7L61.6 20.1L62.95 20.1L62.8 19.7L61.55 19.7M67.95,17.8L68.9 17.8L68.85 17.6L67.85 17.6L67.95 17.8M65.2,19.7L65.25 19.95L65.3 20.1L66.6 20.1L66.4 19.7L65.2 19.7M71.3,17.8L72.35 17.8L72.3 17.75L72.2 17.6L71.15 17.6L71.3 17.8M68.8,19.7L68.95 20.1L70.25 20.1L70 19.7L68.8 19.7M72.35,19.7L72.6 20.1L73.9 20.1L73.65 19.7L72.35 19.7M34.2,17.6L34.15 17.75L34.1 17.8L35.1 17.8L35.25 17.6L34.2 17.6M38.5,17.8L38.6 17.6L37.6 17.6L37.5 17.8L38.5 17.8M36.45,19.7L36.2 20.1L37.45 20.1L37.65 19.7L36.45 19.7M40.05,19.7L39.85 20.1L41.1 20.1L41.15 19.95L41.25 19.7L40.05 19.7M40.9,17.6L40.9 17.8L41.9 17.8L41.95 17.65L41.95 17.6L40.9 17.6M43.6,19.7L43.5 20.1L44.8 20.1L44.85 19.7L43.6 19.7M44.2,17.8L45.3 17.8L45.35 17.6L44.2 17.6L44.2 17.8M32.8,19.7L32.5 20.1L33.85 20.1L34.05 19.7L32.8 19.7" />
<linearGradient
id="LinearGradID_57" gradientUnits="userSpaceOnUse" gradientTransform="matrix(0, -0.00823975, -0.00823975, 0, 52.85, -16.75)" spreadMethod ="pad" x1="-819.2" y1="0" x2="819.2" y2="0" >
<stop  offset="0" style="stop-color:#DDF4FE;stop-opacity:1" />
<stop  offset="1" style="stop-color:#007198;stop-opacity:1" />
</linearGradient>
<path style="fill:url(#LinearGradID_57) " d="M69.9,-16.35Q48.3 -17.15 35.8 -10L35.8 -21.75Q35.8 -22.5 36.3 -23Q36.8 -23.5 37.55 -23.5L68.1 -23.5Q68.85 -23.5 69.4 -23Q69.9 -22.5 69.9 -21.75L69.9 -16.35" />
<linearGradient
id="LinearGradID_58" gradientUnits="userSpaceOnUse" gradientTransform="matrix(0, -0.0105133, -0.0105133, 0, 52.85, -7.85)" spreadMethod ="pad" x1="-819.2" y1="0" x2="819.2" y2="0" >
<stop  offset="0" style="stop-color:#DDF4FE;stop-opacity:1" />
<stop  offset="1" style="stop-color:#007198;stop-opacity:1" />
</linearGradient>
<path style="fill:url(#LinearGradID_58) " d="M69.4,0.25Q68.85 0.75 68.1 0.75L37.55 0.75Q36.85 0.75 36.3 0.25Q35.8 -0.25 35.8 -0.95L35.8 -10Q48.3 -17.15 69.9 -16.35L69.9 -0.95Q69.9 -0.25 69.4 0.25" />
<linearGradient
id="LinearGradID_59" gradientUnits="userSpaceOnUse" gradientTransform="matrix(0.139191, 0, 0, -0.139191, -78.9, 0.2)" spreadMethod ="pad" x1="-819.2" y1="0" x2="819.2" y2="0" >
<stop  offset="0" style="stop-color:#E0E9F7;stop-opacity:1" />
<stop  offset="1" style="stop-color:#243B4C;stop-opacity:1" />
</linearGradient>
<path style="fill:url(#LinearGradID_59) " d="M49.45,-32.45L49.45 32.85Q49.45 35.2 47.8 36.85Q46.15 38.5 43.8 38.5L-46.1 38.5Q-48.45 38.5 -50.1 36.85Q-51.75 35.2 -51.75 32.85L-51.75 -32.45Q-51.75 -34.8 -50.1 -36.45Q-48.45 -38.1 -46.1 -38.1L43.8 -38.1Q46.15 -38.1 47.8 -36.45Q49.45 -34.8 49.45 -32.45" />
<path style="fill:#AAACAF;fill-opacity:1" d="M47.15,-35.8Q45.75 -37.15 43.8 -37.15L-46.1 -37.15Q-48.05 -37.15 -49.45 -35.8Q-50.8 -34.4 -50.8 -32.45L-50.8 32.85Q-50.8 34.8 -49.45 36.2Q-48.05 37.55 -46.1 37.55L43.8 37.55Q45.75 37.55 47.15 36.2Q48.5 34.8 48.5 32.85L48.5 -32.45Q48.5 -34.4 47.15 -35.8M50.4,-32.45L50.4 32.85Q50.4 35.6 48.5 37.55Q46.55 39.45 43.8 39.45L-46.1 39.45Q-48.85 39.45 -50.75 37.55Q-52.7 35.6 -52.7 32.85L-52.7 -32.45Q-52.7 -35.2 -50.75 -37.1Q-48.85 -39.05 -46.1 -39.05L43.8 -39.05Q46.55 -39.05 48.5 -37.1Q50.4 -35.2 50.4 -32.45" />
<linearGradient
id="LinearGradID_60" gradientUnits="userSpaceOnUse" gradientTransform="matrix(0.00379944, 0.00814819, 0.00814819, -0.00379944, -13, -29.7)" spreadMethod ="pad" x1="-819.2" y1="0" x2="819.2" y2="0" >
<stop  offset="0" style="stop-color:#FFFFFF;stop-opacity:1" />
<stop  offset="1" style="stop-color:#8F9193;stop-opacity:1" />
</linearGradient>
<path style="fill:url(#LinearGradID_60) " d="M-4.55,-25.7L-21.45 -25.7Q-22.15 -25.7 -22.65 -26.15Q-23.1 -26.65 -23.1 -27.3L-23.1 -32.05Q-23.1 -32.75 -22.65 -33.25L-21.45 -33.7L-4.55 -33.7Q-3.9 -33.7 -3.4 -33.25Q-2.9 -32.75 -2.9 -32.05L-2.9 -27.3Q-2.9 -26.65 -3.4 -26.15Q-3.9 -25.7 -4.55 -25.7" />
<path style="fill:#8F9193;fill-opacity:1" d="M-2.3,-32.05L-2.3 -27.3Q-2.3 -26.4 -2.95 -25.7Q-3.65 -25.05 -4.55 -25.05L-21.45 -25.05Q-22.4 -25.05 -23.05 -25.7Q-23.75 -26.4 -23.75 -27.3L-23.75 -32.05Q-23.75 -33 -23.05 -33.7Q-22.4 -34.35 -21.45 -34.35L-4.55 -34.35Q-3.65 -34.35 -2.95 -33.7Q-2.3 -33 -2.3 -32.05M-4.55,-33.1L-21.45 -33.1L-22.2 -32.8L-22.45 -32.05L-22.45 -27.3L-22.2 -26.6Q-21.9 -26.3 -21.45 -26.3L-4.55 -26.3Q-4.15 -26.3 -3.85 -26.6Q-3.55 -26.9 -3.55 -27.3L-3.55 -32.05Q-3.55 -32.5 -3.85 -32.8Q-4.15 -33.1 -4.55 -33.1" />
<linearGradient
id="LinearGradID_61" gradientUnits="userSpaceOnUse" gradientTransform="matrix(0.00379944, 0.00814819, 0.00814819, -0.00379944, -37.05, -29.7)" spreadMethod ="pad" x1="-819.2" y1="0" x2="819.2" y2="0" >
<stop  offset="0" style="stop-color:#FFFFFF;stop-opacity:1" />
<stop  offset="1" style="stop-color:#8F9193;stop-opacity:1" />
</linearGradient>
<path style="fill:url(#LinearGradID_61) " d="M-28.6,-25.7L-45.5 -25.7Q-46.2 -25.7 -46.65 -26.15Q-47.15 -26.65 -47.15 -27.3L-47.15 -32.05Q-47.15 -32.75 -46.65 -33.25Q-46.2 -33.7 -45.5 -33.7L-28.6 -33.7Q-27.9 -33.7 -27.4 -33.25Q-26.95 -32.75 -26.95 -32.05L-26.95 -27.3Q-26.95 -26.65 -27.4 -26.15Q-27.9 -25.7 -28.6 -25.7" />
<path style="fill:#8F9193;fill-opacity:1" d="M-26.3,-32.05L-26.3 -27.3Q-26.3 -26.4 -26.95 -25.7Q-27.65 -25.05 -28.6 -25.05L-45.5 -25.05Q-46.4 -25.05 -47.1 -25.7Q-47.75 -26.4 -47.75 -27.3L-47.75 -32.05Q-47.75 -33 -47.1 -33.7Q-46.4 -34.35 -45.5 -34.35L-28.6 -34.35Q-27.65 -34.35 -26.95 -33.7Q-26.3 -33 -26.3 -32.05M-28.6,-33.1L-45.5 -33.1L-46.2 -32.8L-46.5 -32.05L-46.5 -27.3L-46.2 -26.6Q-45.9 -26.3 -45.5 -26.3L-28.6 -26.3Q-28.15 -26.3 -27.85 -26.6Q-27.55 -26.9 -27.55 -27.3L-27.55 -32.05Q-27.55 -32.5 -27.85 -32.8L-28.6 -33.1" />
<linearGradient
id="LinearGradID_62" gradientUnits="userSpaceOnUse" gradientTransform="matrix(0.00379944, 0.00814819, 0.00814819, -0.00379944, 11, -29.7)" spreadMethod ="pad" x1="-819.2" y1="0" x2="819.2" y2="0" >
<stop  offset="0" style="stop-color:#FFFFFF;stop-opacity:1" />
<stop  offset="1" style="stop-color:#8F9193;stop-opacity:1" />
</linearGradient>
<path style="fill:url(#LinearGradID_62) " d="M20.6,-26.15Q20.15 -25.7 19.45 -25.7L2.55 -25.7Q1.85 -25.7 1.35 -26.15Q0.9 -26.65 0.9 -27.3L0.9 -32.05Q0.9 -32.75 1.35 -33.25L2.55 -33.7L19.45 -33.7Q20.15 -33.7 20.6 -33.25Q21.1 -32.75 21.1 -32.05L21.1 -27.3Q21.1 -26.65 20.6 -26.15" />
<path style="fill:#8F9193;fill-opacity:1" d="M21.05,-25.7Q20.4 -25.05 19.45 -25.05L2.55 -25.05Q1.6 -25.05 0.95 -25.7Q0.25 -26.4 0.25 -27.3L0.25 -32.05Q0.25 -33 0.95 -33.7Q1.6 -34.35 2.55 -34.35L19.45 -34.35Q20.4 -34.35 21.05 -33.7Q21.7 -33 21.7 -32.05L21.7 -27.3Q21.7 -26.4 21.05 -25.7M19.45,-33.1L2.55 -33.1L1.8 -32.8Q1.55 -32.5 1.55 -32.05L1.55 -27.3Q1.55 -26.9 1.8 -26.6Q2.1 -26.3 2.55 -26.3L19.45 -26.3Q19.9 -26.3 20.2 -26.6L20.45 -27.3L20.45 -32.05L20.2 -32.8L19.45 -33.1" />
<linearGradient
id="LinearGradID_63" gradientUnits="userSpaceOnUse" gradientTransform="matrix(0.00379944, 0.00814819, 0.00814819, -0.00379944, 35.05, -29.7)" spreadMethod ="pad" x1="-819.2" y1="0" x2="819.2" y2="0" >
<stop  offset="0" style="stop-color:#FFFFFF;stop-opacity:1" />
<stop  offset="1" style="stop-color:#8F9193;stop-opacity:1" />
</linearGradient>
<path style="fill:url(#LinearGradID_63) " d="M45.15,-27.3Q45.15 -26.65 44.65 -26.15Q44.15 -25.7 43.5 -25.7L26.55 -25.7Q25.85 -25.7 25.4 -26.15Q24.95 -26.65 24.95 -27.3L24.95 -32.05Q24.95 -32.75 25.4 -33.25Q25.85 -33.7 26.55 -33.7L43.5 -33.7Q44.15 -33.7 44.65 -33.25Q45.15 -32.75 45.15 -32.05L45.15 -27.3" />
<path style="fill:#8F9193;fill-opacity:1" d="M43.5,-33.1L26.55 -33.1Q26.15 -33.1 25.85 -32.8Q25.55 -32.5 25.55 -32.05L25.55 -27.3Q25.55 -26.9 25.85 -26.6Q26.15 -26.3 26.55 -26.3L43.5 -26.3Q43.9 -26.3 44.2 -26.6L44.5 -27.3L44.5 -32.05L44.2 -32.8L43.5 -33.1M45.75,-27.3Q45.75 -26.4 45.1 -25.7Q44.4 -25.05 43.5 -25.05L26.55 -25.05Q25.6 -25.05 24.95 -25.7Q24.25 -26.4 24.25 -27.3L24.25 -32.05Q24.25 -33 24.95 -33.7Q25.6 -34.35 26.55 -34.35L43.5 -34.35Q44.4 -34.35 45.1 -33.7Q45.75 -33 45.75 -32.05L45.75 -27.3" />
<linearGradient
id="LinearGradID_64" gradientUnits="userSpaceOnUse" gradientTransform="matrix(0.00395203, 0.00849915, 0.00849915, -0.00395203, -0.3, -18)" spreadMethod ="pad" x1="-819.2" y1="0" x2="819.2" y2="0" >
<stop  offset="0" style="stop-color:#FFFFFF;stop-opacity:1" />
<stop  offset="1" style="stop-color:#8F9193;stop-opacity:1" />
</linearGradient>
<path style="fill:url(#LinearGradID_64) " d="M8.9,-13.95L-9.5 -13.95Q-10.15 -13.95 -10.65 -14.4Q-11.1 -14.9 -11.1 -15.6L-11.1 -20.35L-10.65 -21.5Q-10.15 -22 -9.5 -22L8.9 -22Q9.6 -22 10.05 -21.5L10.5 -20.35L10.5 -15.6Q10.5 -14.9 10.05 -14.4Q9.6 -13.95 8.9 -13.95" />
<path style="fill:#8F9193;fill-opacity:1" d="M8.9,-21.4L-9.5 -21.4Q-9.9 -21.4 -10.2 -21.05L-10.5 -20.35L-10.5 -15.6L-10.2 -14.9Q-9.9 -14.6 -9.5 -14.6L8.9 -14.6Q9.3 -14.6 9.6 -14.9L9.9 -15.6L9.9 -20.35L9.6 -21.05Q9.3 -21.4 8.9 -21.4M11.15,-20.35L11.15 -15.6Q11.15 -14.7 10.5 -14Q9.85 -13.3 8.9 -13.3L-9.5 -13.3Q-10.45 -13.3 -11.1 -14Q-11.75 -14.7 -11.75 -15.6L-11.75 -20.35Q-11.75 -21.3 -11.1 -21.95Q-10.45 -22.65 -9.5 -22.65L8.9 -22.65Q9.85 -22.65 10.5 -21.95Q11.15 -21.3 11.15 -20.35" />
<linearGradient
id="LinearGradID_65" gradientUnits="userSpaceOnUse" gradientTransform="matrix(0.00379944, 0.00814819, 0.00814819, -0.00379944, 24.45, -18)" spreadMethod ="pad" x1="-819.2" y1="0" x2="819.2" y2="0" >
<stop  offset="0" style="stop-color:#FFFFFF;stop-opacity:1" />
<stop  offset="1" style="stop-color:#8F9193;stop-opacity:1" />
</linearGradient>
<path style="fill:url(#LinearGradID_65) " d="M32.9,-13.95L15.95 -13.95Q15.25 -13.95 14.8 -14.4Q14.35 -14.9 14.35 -15.6L14.35 -20.35Q14.35 -21.05 14.8 -21.5Q15.25 -22 15.95 -22L32.9 -22Q33.55 -22 34.05 -21.5Q34.55 -21.05 34.55 -20.35L34.55 -15.6Q34.55 -14.9 34.05 -14.4Q33.55 -13.95 32.9 -13.95" />
<path style="fill:#8F9193;fill-opacity:1" d="M35.15,-15.6Q35.15 -14.7 34.5 -14Q33.8 -13.3 32.9 -13.3L15.95 -13.3Q15 -13.3 14.35 -14Q13.7 -14.7 13.7 -15.6L13.7 -20.35Q13.7 -21.3 14.35 -21.95Q15 -22.65 15.95 -22.65L32.9 -22.65Q33.8 -22.65 34.5 -21.95Q35.15 -21.3 35.15 -20.35L35.15 -15.6M33.6,-21.05Q33.3 -21.4 32.9 -21.4L15.95 -21.4Q15.55 -21.4 15.25 -21.05Q14.95 -20.8 14.95 -20.35L14.95 -15.6Q14.95 -15.2 15.25 -14.9Q15.55 -14.6 15.95 -14.6L32.9 -14.6Q33.3 -14.6 33.6 -14.9L33.9 -15.6L33.9 -20.35L33.6 -21.05" />
<linearGradient
id="LinearGradID_66" gradientUnits="userSpaceOnUse" gradientTransform="matrix(0.00395203, 0.00849915, 0.00849915, -0.00395203, -25.65, -18)" spreadMethod ="pad" x1="-819.2" y1="0" x2="819.2" y2="0" >
<stop  offset="0" style="stop-color:#FFFFFF;stop-opacity:1" />
<stop  offset="1" style="stop-color:#8F9193;stop-opacity:1" />
</linearGradient>
<path style="fill:url(#LinearGradID_66) " d="M-16.45,-13.95L-34.85 -13.95Q-35.55 -13.95 -36 -14.4Q-36.5 -14.9 -36.5 -15.6L-36.5 -20.35Q-36.5 -21.05 -36 -21.5Q-35.55 -22 -34.85 -22L-16.45 -22Q-15.75 -22 -15.3 -21.5Q-14.85 -21.05 -14.85 -20.35L-14.85 -15.6Q-14.85 -14.9 -15.3 -14.4Q-15.75 -13.95 -16.45 -13.95" />
<path style="fill:#8F9193;fill-opacity:1" d="M-16.45,-21.4L-34.85 -21.4Q-35.3 -21.4 -35.55 -21.05L-35.85 -20.35L-35.85 -15.6L-35.55 -14.9Q-35.3 -14.6 -34.85 -14.6L-16.45 -14.6Q-16.05 -14.6 -15.75 -14.9Q-15.45 -15.2 -15.45 -15.6L-15.45 -20.35Q-15.45 -20.8 -15.75 -21.05Q-16.05 -21.4 -16.45 -21.4M-14.2,-20.35L-14.2 -15.6Q-14.2 -14.7 -14.85 -14Q-15.55 -13.3 -16.45 -13.3L-34.85 -13.3Q-35.8 -13.3 -36.45 -14Q-37.15 -14.7 -37.15 -15.6L-37.15 -20.35Q-37.15 -21.3 -36.45 -21.95Q-35.8 -22.65 -34.85 -22.65L-16.45 -22.65Q-15.55 -22.65 -14.85 -21.95Q-14.2 -21.3 -14.2 -20.35" />
<linearGradient
id="LinearGradID_67" gradientUnits="userSpaceOnUse" gradientTransform="matrix(0.00231934, 0.00495911, 0.00495911, -0.00231934, 41.55, -18)" spreadMethod ="pad" x1="-819.2" y1="0" x2="819.2" y2="0" >
<stop  offset="0" style="stop-color:#FFFFFF;stop-opacity:1" />
<stop  offset="1" style="stop-color:#8F9193;stop-opacity:1" />
</linearGradient>
<path style="fill:url(#LinearGradID_67) " d="M44.85,-20.35L44.85 -15.6Q44.85 -14.9 44.4 -14.4Q43.9 -13.95 43.25 -13.95L39.9 -13.95Q39.25 -13.95 38.75 -14.4Q38.25 -14.9 38.25 -15.6L38.25 -20.35Q38.25 -21.05 38.75 -21.5Q39.25 -22 39.9 -22L43.25 -22Q43.9 -22 44.4 -21.5Q44.85 -21.05 44.85 -20.35" />
<path style="fill:#8F9193;fill-opacity:1" d="M43.25,-21.4L39.9 -21.4Q39.5 -21.4 39.2 -21.05Q38.9 -20.8 38.9 -20.35L38.9 -15.6Q38.9 -15.2 39.2 -14.9Q39.5 -14.6 39.9 -14.6L43.25 -14.6L43.95 -14.9L44.25 -15.6L44.25 -20.35L43.95 -21.05L43.25 -21.4M43.25,-22.65Q44.15 -22.65 44.85 -21.95Q45.5 -21.3 45.5 -20.35L45.5 -15.6Q45.5 -14.7 44.85 -14Q44.15 -13.3 43.25 -13.3L39.9 -13.3Q39 -13.3 38.3 -14Q37.65 -14.7 37.65 -15.6L37.65 -20.35Q37.65 -21.3 38.3 -21.95Q39 -22.65 39.9 -22.65L43.25 -22.65" />
<linearGradient
id="LinearGradID_68" gradientUnits="userSpaceOnUse" gradientTransform="matrix(0.00230408, 0.00494385, 0.00494385, -0.00230408, -43.65, -18)" spreadMethod ="pad" x1="-819.2" y1="0" x2="819.2" y2="0" >
<stop  offset="0" style="stop-color:#FFFFFF;stop-opacity:1" />
<stop  offset="1" style="stop-color:#8F9193;stop-opacity:1" />
</linearGradient>
<path style="fill:url(#LinearGradID_68) " d="M-46.4,-14.4Q-46.9 -14.9 -46.9 -15.6L-46.9 -20.35Q-46.9 -21.05 -46.4 -21.5Q-45.9 -22 -45.25 -22L-42.05 -22Q-41.4 -22 -40.9 -21.5Q-40.4 -21.05 -40.4 -20.35L-40.4 -15.6Q-40.4 -14.9 -40.9 -14.4Q-41.4 -13.95 -42.05 -13.95L-45.25 -13.95Q-45.9 -13.95 -46.4 -14.4" />
<path style="fill:#8F9193;fill-opacity:1" d="M-45.95,-21.05L-46.25 -20.35L-46.25 -15.6L-45.95 -14.9Q-45.65 -14.6 -45.25 -14.6L-42.05 -14.6Q-41.65 -14.6 -41.35 -14.9Q-41.05 -15.2 -41.05 -15.6L-41.05 -20.35Q-41.05 -20.8 -41.35 -21.05Q-41.65 -21.4 -42.05 -21.4L-45.25 -21.4L-45.95 -21.05M-45.25,-22.65L-42.05 -22.65Q-41.15 -22.65 -40.45 -21.95Q-39.8 -21.3 -39.8 -20.35L-39.8 -15.6Q-39.8 -14.7 -40.45 -14Q-41.15 -13.3 -42.05 -13.3L-45.25 -13.3Q-46.15 -13.3 -46.85 -14Q-47.5 -14.7 -47.5 -15.6L-47.5 -20.35Q-47.5 -21.3 -46.85 -21.95Q-46.15 -22.65 -45.25 -22.65" />
<linearGradient
id="LinearGradID_69" gradientUnits="userSpaceOnUse" gradientTransform="matrix(0.00379944, 0.00814819, 0.00814819, -0.00379944, -13, -6.2)" spreadMethod ="pad" x1="-819.2" y1="0" x2="819.2" y2="0" >
<stop  offset="0" style="stop-color:#FFFFFF;stop-opacity:1" />
<stop  offset="1" style="stop-color:#8F9193;stop-opacity:1" />
</linearGradient>
<path style="fill:url(#LinearGradID_69) " d="M-4.55,-2.2L-21.45 -2.2Q-22.15 -2.2 -22.65 -2.65Q-23.1 -3.15 -23.1 -3.8L-23.1 -8.55Q-23.1 -9.25 -22.65 -9.75L-21.45 -10.2L-4.55 -10.2Q-3.9 -10.2 -3.4 -9.75Q-2.9 -9.25 -2.9 -8.55L-2.9 -3.8Q-2.9 -3.15 -3.4 -2.65Q-3.9 -2.2 -4.55 -2.2" />
<path style="fill:#8F9193;fill-opacity:1" d="M-4.55,-9.6L-21.45 -9.6L-22.2 -9.3L-22.45 -8.55L-22.45 -3.8L-22.2 -3.1Q-21.9 -2.8 -21.45 -2.8L-4.55 -2.8Q-4.15 -2.8 -3.85 -3.1Q-3.55 -3.4 -3.55 -3.8L-3.55 -8.55Q-3.55 -9 -3.85 -9.3Q-4.15 -9.6 -4.55 -9.6M-2.3,-3.8Q-2.3 -2.9 -2.95 -2.2Q-3.65 -1.55 -4.55 -1.55L-21.45 -1.55Q-22.4 -1.55 -23.05 -2.2Q-23.75 -2.9 -23.75 -3.8L-23.75 -8.55Q-23.75 -9.5 -23.05 -10.2Q-22.4 -10.85 -21.45 -10.85L-4.55 -10.85Q-3.65 -10.85 -2.95 -10.2Q-2.3 -9.5 -2.3 -8.55L-2.3 -3.8" />
<linearGradient
id="LinearGradID_70" gradientUnits="userSpaceOnUse" gradientTransform="matrix(0.00379944, 0.00814819, 0.00814819, -0.00379944, -37.05, -6.2)" spreadMethod ="pad" x1="-819.2" y1="0" x2="819.2" y2="0" >
<stop  offset="0" style="stop-color:#FFFFFF;stop-opacity:1" />
<stop  offset="1" style="stop-color:#8F9193;stop-opacity:1" />
</linearGradient>
<path style="fill:url(#LinearGradID_70) " d="M-45.5,-10.2L-28.6 -10.2Q-27.9 -10.2 -27.4 -9.75Q-26.95 -9.25 -26.95 -8.55L-26.95 -3.8Q-26.95 -3.15 -27.4 -2.65Q-27.9 -2.2 -28.6 -2.2L-45.5 -2.2Q-46.2 -2.2 -46.65 -2.65Q-47.15 -3.15 -47.15 -3.8L-47.15 -8.55Q-47.15 -9.25 -46.65 -9.75Q-46.2 -10.2 -45.5 -10.2" />
<path style="fill:#8F9193;fill-opacity:1" d="M-46.5,-3.8L-46.2 -3.1Q-45.9 -2.8 -45.5 -2.8L-28.6 -2.8Q-28.15 -2.8 -27.85 -3.1Q-27.55 -3.4 -27.55 -3.8L-27.55 -8.55Q-27.55 -9 -27.85 -9.3L-28.6 -9.6L-45.5 -9.6L-46.2 -9.3L-46.5 -8.55L-46.5 -3.8M-45.5,-10.85L-28.6 -10.85Q-27.65 -10.85 -26.95 -10.2Q-26.3 -9.5 -26.3 -8.55L-26.3 -3.8Q-26.3 -2.9 -26.95 -2.2Q-27.65 -1.55 -28.6 -1.55L-45.5 -1.55Q-46.4 -1.55 -47.1 -2.2Q-47.75 -2.9 -47.75 -3.8L-47.75 -8.55Q-47.75 -9.5 -47.1 -10.2Q-46.4 -10.85 -45.5 -10.85" />
<linearGradient
id="LinearGradID_71" gradientUnits="userSpaceOnUse" gradientTransform="matrix(0.00379944, 0.00814819, 0.00814819, -0.00379944, 11, -6.2)" spreadMethod ="pad" x1="-819.2" y1="0" x2="819.2" y2="0" >
<stop  offset="0" style="stop-color:#FFFFFF;stop-opacity:1" />
<stop  offset="1" style="stop-color:#8F9193;stop-opacity:1" />
</linearGradient>
<path style="fill:url(#LinearGradID_71) " d="M19.45,-10.2Q20.15 -10.2 20.6 -9.75Q21.1 -9.25 21.1 -8.55L21.1 -3.8Q21.1 -3.15 20.6 -2.65Q20.15 -2.2 19.45 -2.2L2.55 -2.2Q1.85 -2.2 1.35 -2.65Q0.9 -3.15 0.9 -3.8L0.9 -8.55Q0.9 -9.25 1.35 -9.75L2.55 -10.2L19.45 -10.2" />
<path style="fill:#8F9193;fill-opacity:1" d="M19.45,-9.6L2.55 -9.6L1.8 -9.3Q1.55 -9 1.55 -8.55L1.55 -3.8Q1.55 -3.4 1.8 -3.1Q2.1 -2.8 2.55 -2.8L19.45 -2.8Q19.9 -2.8 20.2 -3.1L20.45 -3.8L20.45 -8.55L20.2 -9.3L19.45 -9.6M0.25,-8.55Q0.25 -9.5 0.95 -10.2Q1.6 -10.85 2.55 -10.85L19.45 -10.85Q20.4 -10.85 21.05 -10.2Q21.7 -9.5 21.7 -8.55L21.7 -3.8Q21.7 -2.9 21.05 -2.2Q20.4 -1.55 19.45 -1.55L2.55 -1.55Q1.6 -1.55 0.95 -2.2Q0.25 -2.9 0.25 -3.8L0.25 -8.55" />
<linearGradient
id="LinearGradID_72" gradientUnits="userSpaceOnUse" gradientTransform="matrix(0.00379944, 0.00814819, 0.00814819, -0.00379944, 35.05, -6.2)" spreadMethod ="pad" x1="-819.2" y1="0" x2="819.2" y2="0" >
<stop  offset="0" style="stop-color:#FFFFFF;stop-opacity:1" />
<stop  offset="1" style="stop-color:#8F9193;stop-opacity:1" />
</linearGradient>
<path style="fill:url(#LinearGradID_72) " d="M43.5,-2.2L26.55 -2.2Q25.85 -2.2 25.4 -2.65Q24.9 -3.15 24.9 -3.8L24.9 -8.55Q24.9 -9.25 25.4 -9.75Q25.85 -10.2 26.55 -10.2L43.5 -10.2Q44.15 -10.2 44.65 -9.75Q45.15 -9.25 45.15 -8.55L45.15 -3.8Q45.15 -3.15 44.65 -2.65Q44.15 -2.2 43.5 -2.2" />
<path style="fill:#8F9193;fill-opacity:1" d="M45.75,-3.8Q45.75 -2.9 45.1 -2.2Q44.4 -1.55 43.5 -1.55L26.55 -1.55Q25.6 -1.55 24.95 -2.2Q24.25 -2.9 24.25 -3.8L24.25 -8.55Q24.25 -9.5 24.95 -10.2Q25.6 -10.85 26.55 -10.85L43.5 -10.85Q44.4 -10.85 45.1 -10.2Q45.75 -9.5 45.75 -8.55L45.75 -3.8M44.5,-8.55L44.2 -9.3L43.5 -9.6L26.55 -9.6Q26.15 -9.6 25.85 -9.3Q25.55 -9 25.55 -8.55L25.55 -3.8Q25.55 -3.4 25.85 -3.1Q26.15 -2.8 26.55 -2.8L43.5 -2.8Q43.9 -2.8 44.2 -3.1L44.5 -3.8L44.5 -8.55" />
<linearGradient
id="LinearGradID_73" gradientUnits="userSpaceOnUse" gradientTransform="matrix(0.00395203, 0.00849915, 0.00849915, -0.00395203, -0.3, 5.55)" spreadMethod ="pad" x1="-819.2" y1="0" x2="819.2" y2="0" >
<stop  offset="0" style="stop-color:#FFFFFF;stop-opacity:1" />
<stop  offset="1" style="stop-color:#8F9193;stop-opacity:1" />
</linearGradient>
<path style="fill:url(#LinearGradID_73) " d="M8.9,9.55L-9.5 9.55Q-10.15 9.55 -10.65 9.05L-11.1 7.9L-11.1 3.15Q-11.1 2.45 -10.65 2Q-10.15 1.5 -9.5 1.5L8.9 1.5Q9.6 1.5 10.05 2Q10.5 2.45 10.5 3.15L10.5 7.9L10.05 9.05Q9.6 9.55 8.9 9.55" />
<path style="fill:#8F9193;fill-opacity:1" d="M11.15,3.15L11.15 7.9Q11.15 8.85 10.5 9.5Q9.85 10.2 8.9 10.2L-9.5 10.2Q-10.45 10.2 -11.1 9.5Q-11.75 8.85 -11.75 7.9L-11.75 3.15Q-11.75 2.2 -11.1 1.55Q-10.45 0.9 -9.5 0.9L8.9 0.9Q9.85 0.9 10.5 1.55Q11.15 2.2 11.15 3.15M9.6,2.45Q9.35 2.15 8.9 2.15L-9.5 2.15Q-9.9 2.15 -10.2 2.45L-10.5 3.15L-10.5 7.9L-10.2 8.65L-9.5 8.9L8.9 8.9L9.6 8.65L9.9 7.9L9.9 3.15L9.6 2.45" />
<linearGradient
id="LinearGradID_74" gradientUnits="userSpaceOnUse" gradientTransform="matrix(0.00379944, 0.00814819, 0.00814819, -0.00379944, 24.45, 5.5)" spreadMethod ="pad" x1="-819.2" y1="0" x2="819.2" y2="0" >
<stop  offset="0" style="stop-color:#FFFFFF;stop-opacity:1" />
<stop  offset="1" style="stop-color:#8F9193;stop-opacity:1" />
</linearGradient>
<path style="fill:url(#LinearGradID_74) " d="M15.95,1.5L32.9 1.5Q33.55 1.5 34.05 2Q34.55 2.45 34.55 3.15L34.55 7.9Q34.55 8.6 34.05 9.05Q33.55 9.55 32.9 9.55L15.95 9.55Q15.25 9.55 14.8 9.05Q14.35 8.6 14.35 7.9L14.35 3.15Q14.35 2.45 14.8 2Q15.25 1.5 15.95 1.5" />
<path style="fill:#8F9193;fill-opacity:1" d="M14.95,3.15L14.95 7.9Q14.95 8.35 15.25 8.65L15.95 8.9L32.9 8.9L33.6 8.65L33.9 7.9L33.9 3.15L33.6 2.45Q33.3 2.15 32.9 2.15L15.95 2.15Q15.55 2.15 15.25 2.45Q14.95 2.75 14.95 3.15M15.95,0.9L32.9 0.9Q33.8 0.9 34.5 1.55Q35.15 2.2 35.15 3.15L35.15 7.9Q35.15 8.85 34.5 9.5Q33.8 10.2 32.9 10.2L15.95 10.2Q15 10.2 14.35 9.5Q13.7 8.85 13.7 7.9L13.7 3.15Q13.7 2.2 14.35 1.55Q15 0.9 15.95 0.9" />
<linearGradient
id="LinearGradID_75" gradientUnits="userSpaceOnUse" gradientTransform="matrix(0.00395203, 0.00849915, 0.00849915, -0.00395203, -25.65, 5.5)" spreadMethod ="pad" x1="-819.2" y1="0" x2="819.2" y2="0" >
<stop  offset="0" style="stop-color:#FFFFFF;stop-opacity:1" />
<stop  offset="1" style="stop-color:#8F9193;stop-opacity:1" />
</linearGradient>
<path style="fill:url(#LinearGradID_75) " d="M-34.85,1.5L-16.45 1.5Q-15.75 1.5 -15.3 2Q-14.85 2.45 -14.85 3.15L-14.85 7.9Q-14.85 8.6 -15.3 9.05Q-15.75 9.55 -16.45 9.55L-34.85 9.55Q-35.55 9.55 -36 9.05Q-36.5 8.6 -36.5 7.9L-36.5 3.15Q-36.5 2.45 -36 2Q-35.55 1.5 -34.85 1.5" />
<path style="fill:#8F9193;fill-opacity:1" d="M-35.85,3.15L-35.85 7.9L-35.55 8.65L-34.85 8.9L-16.45 8.9L-15.75 8.65Q-15.45 8.35 -15.45 7.9L-15.45 3.15Q-15.45 2.75 -15.75 2.45Q-16.05 2.15 -16.45 2.15L-34.85 2.15Q-35.3 2.15 -35.55 2.45L-35.85 3.15M-34.85,0.9L-16.45 0.9Q-15.55 0.9 -14.85 1.55Q-14.2 2.2 -14.2 3.15L-14.2 7.9Q-14.2 8.85 -14.85 9.5Q-15.55 10.2 -16.45 10.2L-34.85 10.2Q-35.8 10.2 -36.45 9.5Q-37.15 8.85 -37.15 7.9L-37.15 3.15Q-37.15 2.2 -36.45 1.55Q-35.8 0.9 -34.85 0.9" />
<linearGradient
id="LinearGradID_76" gradientUnits="userSpaceOnUse" gradientTransform="matrix(0.00231934, 0.00495911, 0.00495911, -0.00231934, 41.55, 5.55)" spreadMethod ="pad" x1="-819.2" y1="0" x2="819.2" y2="0" >
<stop  offset="0" style="stop-color:#FFFFFF;stop-opacity:1" />
<stop  offset="1" style="stop-color:#8F9193;stop-opacity:1" />
</linearGradient>
<path style="fill:url(#LinearGradID_76) " d="M38.75,2Q39.25 1.5 39.9 1.5L43.25 1.5Q43.9 1.5 44.4 2Q44.85 2.45 44.85 3.15L44.85 7.9Q44.85 8.6 44.4 9.05Q43.9 9.55 43.25 9.55L39.9 9.55Q39.25 9.55 38.75 9.05Q38.25 8.6 38.25 7.9L38.25 3.15Q38.25 2.45 38.75 2" />
<path style="fill:#8F9193;fill-opacity:1" d="M38.3,1.55Q39 0.9 39.9 0.9L43.25 0.9Q44.15 0.9 44.85 1.55Q45.5 2.2 45.5 3.15L45.5 7.9Q45.5 8.85 44.85 9.5Q44.15 10.2 43.25 10.2L39.9 10.2Q39 10.2 38.3 9.5Q37.65 8.85 37.65 7.9L37.65 3.15Q37.65 2.2 38.3 1.55M38.9,3.15L38.9 7.9Q38.9 8.3 39.2 8.65L39.9 8.9L43.25 8.9L43.95 8.65L44.25 7.9L44.25 3.15L43.95 2.45L43.25 2.15L39.9 2.15Q39.5 2.15 39.2 2.45Q38.9 2.75 38.9 3.15" />
<linearGradient
id="LinearGradID_77" gradientUnits="userSpaceOnUse" gradientTransform="matrix(0.00230408, 0.00494385, 0.00494385, -0.00230408, -43.65, 5.5)" spreadMethod ="pad" x1="-819.2" y1="0" x2="819.2" y2="0" >
<stop  offset="0" style="stop-color:#FFFFFF;stop-opacity:1" />
<stop  offset="1" style="stop-color:#8F9193;stop-opacity:1" />
</linearGradient>
<path style="fill:url(#LinearGradID_77) " d="M-40.9,2Q-40.4 2.45 -40.4 3.15L-40.4 7.9Q-40.4 8.6 -40.9 9.05Q-41.4 9.55 -42.05 9.55L-45.25 9.55Q-45.9 9.55 -46.4 9.05Q-46.9 8.6 -46.9 7.9L-46.9 3.15Q-46.9 2.45 -46.4 2Q-45.9 1.5 -45.25 1.5L-42.05 1.5Q-41.4 1.5 -40.9 2" />
<path style="fill:#8F9193;fill-opacity:1" d="M-42.05,2.15L-45.25 2.15Q-45.65 2.15 -45.95 2.45L-46.25 3.15L-46.25 7.9L-45.95 8.65L-45.25 8.9L-42.05 8.9L-41.35 8.65Q-41.05 8.3 -41.05 7.9L-41.05 3.15Q-41.05 2.75 -41.35 2.45Q-41.65 2.15 -42.05 2.15M-39.8,3.15L-39.8 7.9Q-39.8 8.85 -40.45 9.5Q-41.15 10.2 -42.05 10.2L-45.25 10.2Q-46.15 10.2 -46.85 9.5Q-47.5 8.85 -47.5 7.9L-47.5 3.15Q-47.5 2.2 -46.85 1.55Q-46.15 0.9 -45.25 0.9L-42.05 0.9Q-41.15 0.9 -40.45 1.55Q-39.8 2.2 -39.8 3.15" />
<linearGradient
id="LinearGradID_78" gradientUnits="userSpaceOnUse" gradientTransform="matrix(0.00379944, 0.00814819, 0.00814819, -0.00379944, -13, 17.3)" spreadMethod ="pad" x1="-819.2" y1="0" x2="819.2" y2="0" >
<stop  offset="0" style="stop-color:#FFFFFF;stop-opacity:1" />
<stop  offset="1" style="stop-color:#8F9193;stop-opacity:1" />
</linearGradient>
<path style="fill:url(#LinearGradID_78) " d="M-2.9,19.7Q-2.9 20.35 -3.4 20.85Q-3.9 21.35 -4.55 21.35L-21.45 21.35Q-22.15 21.35 -22.65 20.85L-23.1 19.7L-23.1 14.95Q-23.1 14.25 -22.65 13.8Q-22.15 13.3 -21.45 13.3L-4.55 13.3Q-3.9 13.3 -3.4 13.8Q-2.9 14.25 -2.9 14.95L-2.9 19.7" />
<path style="fill:#8F9193;fill-opacity:1" d="M-4.55,13.9L-21.45 13.9Q-21.9 13.9 -22.2 14.25L-22.45 14.95L-22.45 19.7L-22.2 20.4L-21.45 20.7L-4.55 20.7Q-4.15 20.7 -3.85 20.4Q-3.55 20.1 -3.55 19.7L-3.55 14.95Q-3.55 14.5 -3.85 14.25Q-4.15 13.9 -4.55 13.9M-2.3,19.7Q-2.3 20.6 -2.95 21.3Q-3.65 21.95 -4.55 21.95L-21.45 21.95Q-22.4 21.95 -23.05 21.3Q-23.75 20.6 -23.75 19.7L-23.75 14.95Q-23.75 14 -23.05 13.3Q-22.4 12.65 -21.45 12.65L-4.55 12.65Q-3.65 12.65 -2.95 13.3Q-2.3 14 -2.3 14.95L-2.3 19.7" />
<linearGradient
id="LinearGradID_79" gradientUnits="userSpaceOnUse" gradientTransform="matrix(0.00379944, 0.00814819, 0.00814819, -0.00379944, -37.05, 17.3)" spreadMethod ="pad" x1="-819.2" y1="0" x2="819.2" y2="0" >
<stop  offset="0" style="stop-color:#FFFFFF;stop-opacity:1" />
<stop  offset="1" style="stop-color:#8F9193;stop-opacity:1" />
</linearGradient>
<path style="fill:url(#LinearGradID_79) " d="M-45.5,13.3L-28.6 13.3Q-27.9 13.3 -27.4 13.8Q-26.95 14.25 -26.95 14.95L-26.95 19.7Q-26.95 20.35 -27.4 20.85Q-27.9 21.35 -28.6 21.35L-45.5 21.35Q-46.2 21.35 -46.65 20.85Q-47.15 20.35 -47.15 19.7L-47.15 14.95Q-47.15 14.25 -46.65 13.8Q-46.2 13.3 -45.5 13.3" />
<path style="fill:#8F9193;fill-opacity:1" d="M-46.5,19.7L-46.2 20.4L-45.5 20.7L-28.6 20.7Q-28.15 20.7 -27.85 20.4Q-27.55 20.1 -27.55 19.7L-27.55 14.95Q-27.55 14.5 -27.85 14.25Q-28.15 13.9 -28.6 13.9L-45.5 13.9Q-45.9 13.9 -46.2 14.25L-46.5 14.95L-46.5 19.7M-45.5,12.65L-28.6 12.65Q-27.65 12.65 -26.95 13.3Q-26.3 14 -26.3 14.95L-26.3 19.7Q-26.3 20.6 -26.95 21.3Q-27.65 21.95 -28.6 21.95L-45.5 21.95Q-46.4 21.95 -47.1 21.3Q-47.75 20.6 -47.75 19.7L-47.75 14.95Q-47.75 14 -47.1 13.3Q-46.4 12.65 -45.5 12.65" />
<linearGradient
id="LinearGradID_80" gradientUnits="userSpaceOnUse" gradientTransform="matrix(0.00379944, 0.00814819, 0.00814819, -0.00379944, 11, 17.3)" spreadMethod ="pad" x1="-819.2" y1="0" x2="819.2" y2="0" >
<stop  offset="0" style="stop-color:#FFFFFF;stop-opacity:1" />
<stop  offset="1" style="stop-color:#8F9193;stop-opacity:1" />
</linearGradient>
<path style="fill:url(#LinearGradID_80) " d="M19.45,13.3Q20.15 13.3 20.6 13.8Q21.1 14.25 21.1 14.95L21.1 19.7Q21.1 20.35 20.6 20.85Q20.15 21.35 19.45 21.35L2.55 21.35Q1.85 21.35 1.35 20.85Q0.9 20.35 0.9 19.7L0.9 14.95Q0.9 14.25 1.35 13.8Q1.85 13.3 2.55 13.3L19.45 13.3" />
<path style="fill:#8F9193;fill-opacity:1" d="M1.55,14.95L1.55 19.7L1.8 20.4L2.55 20.7L19.45 20.7L20.2 20.4L20.45 19.7L20.45 14.95L20.2 14.25Q19.85 13.9 19.45 13.9L2.55 13.9Q2.1 13.9 1.8 14.25Q1.55 14.5 1.55 14.95M0.95,13.3Q1.6 12.65 2.55 12.65L19.45 12.65Q20.4 12.65 21.05 13.3Q21.7 14 21.7 14.95L21.7 19.7Q21.7 20.6 21.05 21.3Q20.4 21.95 19.45 21.95L2.55 21.95Q1.6 21.95 0.95 21.3Q0.25 20.6 0.25 19.7L0.25 14.95Q0.25 14 0.95 13.3" />
<linearGradient
id="LinearGradID_81" gradientUnits="userSpaceOnUse" gradientTransform="matrix(0.00379944, 0.00814819, 0.00814819, -0.00379944, 35.05, 17.3)" spreadMethod ="pad" x1="-819.2" y1="0" x2="819.2" y2="0" >
<stop  offset="0" style="stop-color:#FFFFFF;stop-opacity:1" />
<stop  offset="1" style="stop-color:#8F9193;stop-opacity:1" />
</linearGradient>
<path style="fill:url(#LinearGradID_81) " d="M45.15,19.7Q45.15 20.35 44.65 20.85Q44.15 21.35 43.5 21.35L26.55 21.35Q25.85 21.35 25.4 20.85Q24.9 20.35 24.9 19.7L24.9 14.95Q24.9 14.25 25.4 13.8Q25.85 13.3 26.55 13.3L43.5 13.3Q44.15 13.3 44.65 13.8Q45.15 14.25 45.15 14.95L45.15 19.7" />
<path style="fill:#8F9193;fill-opacity:1" d="M25.55,14.95L25.55 19.7L25.85 20.4Q26.15 20.7 26.55 20.7L43.5 20.7L44.2 20.4L44.5 19.7L44.5 14.95L44.2 14.25Q43.9 13.9 43.5 13.9L26.55 13.9Q26.15 13.9 25.85 14.25Q25.55 14.5 25.55 14.95M24.95,13.3Q25.6 12.65 26.55 12.65L43.5 12.65Q44.4 12.65 45.1 13.3Q45.75 14 45.75 14.95L45.75 19.7Q45.75 20.6 45.1 21.3Q44.4 21.95 43.5 21.95L26.55 21.95Q25.6 21.95 24.95 21.3Q24.25 20.6 24.25 19.7L24.25 14.95Q24.25 14 24.95 13.3" />
<linearGradient
id="LinearGradID_82" gradientUnits="userSpaceOnUse" gradientTransform="matrix(0.00395203, 0.00849915, 0.00849915, -0.00395203, -0.3, 29.05)" spreadMethod ="pad" x1="-819.2" y1="0" x2="819.2" y2="0" >
<stop  offset="0" style="stop-color:#FFFFFF;stop-opacity:1" />
<stop  offset="1" style="stop-color:#8F9193;stop-opacity:1" />
</linearGradient>
<path style="fill:url(#LinearGradID_82) " d="M-9.5,25L8.9 25Q9.6 25 10.05 25.5Q10.5 25.95 10.5 26.65L10.5 31.45Q10.5 32.1 10.05 32.55Q9.6 33.05 8.9 33.05L-9.5 33.05Q-10.15 33.05 -10.65 32.55L-11.1 31.45L-11.1 26.65Q-11.1 25.95 -10.65 25.5Q-10.15 25 -9.5 25" />
<path style="fill:#8F9193;fill-opacity:1" d="M-10.5,26.65L-10.5 31.45L-10.2 32.15L-9.5 32.45L8.9 32.45L9.6 32.15L9.9 31.45L9.9 26.65L9.6 25.95Q9.35 25.65 8.9 25.65L-9.5 25.65Q-9.9 25.65 -10.2 25.95L-10.5 26.65M-9.5,24.4L8.9 24.4Q9.85 24.4 10.5 25.05Q11.15 25.75 11.15 26.65L11.15 31.45Q11.15 32.35 10.5 33.05Q9.85 33.7 8.9 33.7L-9.5 33.7Q-10.45 33.7 -11.1 33.05Q-11.75 32.35 -11.75 31.45L-11.75 26.65Q-11.75 25.75 -11.1 25.05Q-10.45 24.4 -9.5 24.4" />
<linearGradient
id="LinearGradID_83" gradientUnits="userSpaceOnUse" gradientTransform="matrix(0.00379944, 0.00814819, 0.00814819, -0.00379944, 24.45, 29.05)" spreadMethod ="pad" x1="-819.2" y1="0" x2="819.2" y2="0" >
<stop  offset="0" style="stop-color:#FFFFFF;stop-opacity:1" />
<stop  offset="1" style="stop-color:#8F9193;stop-opacity:1" />
</linearGradient>
<path style="fill:url(#LinearGradID_83) " d="M32.9,33.05L15.95 33.05Q15.25 33.05 14.8 32.55Q14.35 32.1 14.35 31.45L14.35 26.65Q14.35 25.95 14.8 25.5Q15.25 25 15.95 25L32.9 25Q33.55 25 34.05 25.5Q34.55 25.95 34.55 26.65L34.55 31.45Q34.55 32.1 34.05 32.55Q33.55 33.05 32.9 33.05" />
<path style="fill:#8F9193;fill-opacity:1" d="M35.15,31.45Q35.15 32.35 34.5 33.05Q33.8 33.7 32.9 33.7L15.95 33.7Q15 33.7 14.35 33.05Q13.7 32.35 13.7 31.45L13.7 26.65Q13.7 25.75 14.35 25.05Q15 24.4 15.95 24.4L32.9 24.4Q33.8 24.4 34.5 25.05Q35.15 25.75 35.15 26.65L35.15 31.45M33.6,25.95Q33.3 25.65 32.9 25.65L15.95 25.65Q15.55 25.65 15.25 25.95Q14.95 26.25 14.95 26.65L14.95 31.45Q14.95 31.85 15.25 32.15Q15.55 32.45 15.95 32.45L32.9 32.45L33.6 32.15L33.9 31.45L33.9 26.65L33.6 25.95" />
<linearGradient
id="LinearGradID_84" gradientUnits="userSpaceOnUse" gradientTransform="matrix(0.00395203, 0.00849915, 0.00849915, -0.00395203, -25.65, 29.05)" spreadMethod ="pad" x1="-819.2" y1="0" x2="819.2" y2="0" >
<stop  offset="0" style="stop-color:#FFFFFF;stop-opacity:1" />
<stop  offset="1" style="stop-color:#8F9193;stop-opacity:1" />
</linearGradient>
<path style="fill:url(#LinearGradID_84) " d="M-16.45,33.05L-34.85 33.05Q-35.55 33.05 -36 32.55Q-36.5 32.1 -36.5 31.45L-36.5 26.65Q-36.5 25.95 -36 25.5Q-35.55 25 -34.85 25L-16.45 25Q-15.75 25 -15.3 25.5Q-14.85 25.95 -14.85 26.65L-14.85 31.45Q-14.85 32.1 -15.3 32.55Q-15.75 33.05 -16.45 33.05" />
<path style="fill:#8F9193;fill-opacity:1" d="M-16.45,25.65L-34.85 25.65Q-35.3 25.65 -35.55 25.95L-35.85 26.65L-35.85 31.45L-35.55 32.15L-34.85 32.45L-16.45 32.45Q-16.05 32.45 -15.75 32.15Q-15.45 31.85 -15.45 31.45L-15.45 26.65Q-15.45 26.25 -15.75 25.95Q-16.05 25.65 -16.45 25.65M-14.2,26.65L-14.2 31.45Q-14.2 32.35 -14.85 33.05Q-15.55 33.7 -16.45 33.7L-34.85 33.7Q-35.8 33.7 -36.45 33.05Q-37.15 32.35 -37.15 31.45L-37.15 26.65Q-37.15 25.75 -36.45 25.05Q-35.8 24.4 -34.85 24.4L-16.45 24.4Q-15.55 24.4 -14.85 25.05Q-14.2 25.75 -14.2 26.65" />
<linearGradient
id="LinearGradID_85" gradientUnits="userSpaceOnUse" gradientTransform="matrix(0.00231934, 0.00495911, 0.00495911, -0.00231934, 41.55, 29.05)" spreadMethod ="pad" x1="-819.2" y1="0" x2="819.2" y2="0" >
<stop  offset="0" style="stop-color:#FFFFFF;stop-opacity:1" />
<stop  offset="1" style="stop-color:#8F9193;stop-opacity:1" />
</linearGradient>
<path style="fill:url(#LinearGradID_85) " d="M44.85,26.65L44.85 31.45L44.4 32.55Q43.9 33.05 43.25 33.05L39.9 33.05Q39.25 33.05 38.75 32.55Q38.25 32.1 38.25 31.45L38.25 26.65Q38.25 25.95 38.75 25.5Q39.25 25 39.9 25L43.25 25Q43.9 25 44.4 25.5Q44.85 25.95 44.85 26.65" />
<path style="fill:#8F9193;fill-opacity:1" d="M43.25,25.65L39.9 25.65Q39.5 25.65 39.2 25.95Q38.9 26.25 38.9 26.65L38.9 31.45Q38.9 31.85 39.2 32.15L39.9 32.45L43.25 32.45L43.95 32.15L44.25 31.45L44.25 26.65L43.95 25.95L43.25 25.65M43.25,24.4Q44.15 24.4 44.85 25.05Q45.5 25.75 45.5 26.65L45.5 31.45Q45.5 32.35 44.85 33.05Q44.15 33.7 43.25 33.7L39.9 33.7Q39 33.7 38.3 33.05Q37.65 32.35 37.65 31.45L37.65 26.65Q37.65 25.75 38.3 25.05Q39 24.4 39.9 24.4L43.25 24.4" />
<linearGradient
id="LinearGradID_86" gradientUnits="userSpaceOnUse" gradientTransform="matrix(0.00230408, 0.00492859, 0.00492859, -0.00230408, -43.65, 29.05)" spreadMethod ="pad" x1="-819.2" y1="0" x2="819.2" y2="0" >
<stop  offset="0" style="stop-color:#FFFFFF;stop-opacity:1" />
<stop  offset="1" style="stop-color:#8F9193;stop-opacity:1" />
</linearGradient>
<path style="fill:url(#LinearGradID_86) " d="M-42.05,33.05L-45.25 33.05Q-45.9 33.05 -46.4 32.55Q-46.9 32.1 -46.9 31.45L-46.9 26.65Q-46.9 25.95 -46.4 25.5Q-45.9 25 -45.25 25L-42.05 25Q-41.4 25 -40.9 25.5Q-40.4 25.95 -40.4 26.65L-40.4 31.45Q-40.4 32.1 -40.9 32.55Q-41.4 33.05 -42.05 33.05" />
<path style="fill:#8F9193;fill-opacity:1" d="M-39.8,26.65L-39.8 31.45Q-39.8 32.35 -40.45 33.05Q-41.15 33.7 -42.05 33.7L-45.25 33.7Q-46.15 33.7 -46.85 33.05Q-47.5 32.35 -47.5 31.45L-47.5 26.65Q-47.5 25.75 -46.85 25.05Q-46.15 24.4 -45.25 24.4L-42.05 24.4Q-41.15 24.4 -40.45 25.05Q-39.8 25.75 -39.8 26.65M-41.35,25.95Q-41.65 25.65 -42.05 25.65L-45.25 25.65Q-45.65 25.65 -45.95 25.95L-46.25 26.65L-46.25 31.45L-45.95 32.15L-45.25 32.45L-42.05 32.45L-41.35 32.15Q-41.05 31.85 -41.05 31.45L-41.05 26.65Q-41.05 26.25 -41.35 25.95" />
</g>
</svg>
