<?xml version="1.0" encoding="utf-8"?>
<!-- Generator: Adobe Illustrator 13.0.0, SVG Export Plug-In . SVG Version: 6.00 Build 14948)  -->
<!DOCTYPE svg PUBLIC "-//W3C//DTD SVG 1.1//EN" "http://www.w3.org/Graphics/SVG/1.1/DTD/svg11.dtd">
<svg version="1.1" id="Layer_1" xmlns="http://www.w3.org/2000/svg" xmlns:xlink="http://www.w3.org/1999/xlink" x="0px" y="0px"
	 width="64px" height="84px" viewBox="0 0 64 84" enable-background="new 0 0 64 84" xml:space="preserve">
<polyline fill="#CCCCCC" points="0.524,25.772 19.589,6.697 63.594,6.697 47.816,25.772 0.524,25.772 "/>
<polygon fill="none" stroke="#FFFFFF" stroke-width="0.4" points="0.524,25.772 19.589,6.697 63.594,6.697 47.816,25.772 "/>
<polyline fill="#CCCCCC" points="47.816,44.73 63.592,23.653 63.592,6.728 47.816,25.77 47.816,44.73 "/>
<polygon fill="none" stroke="#FFFFFF" stroke-width="0.4" points="47.816,44.73 63.592,23.653 63.592,6.728 47.816,25.77 "/>
<path fill="#CCCCCC" d="M0.591,44.747h47.226V25.772H0.591V44.747z"/>
<path fill="none" stroke="#FFFFFF" stroke-width="0.4" d="M0.591,44.747h47.226V25.772H0.591V44.747z"/>
</svg>
